{
	"background_color":"#FF6F00",
	"decription":"卡兜是一款购物类软件，用户可以浏览商品并购买，支持在线充值，也可以添加品牌优惠券。",
	"title":"卡兜",
	"money":"¥20000"
	"times":"70天"
	"develop":"开发&设计"
	"image":[
		"https://bytebucket.org/Frank-Zhu/ecloudprojects/raw/44b48811a589ae96f94adbce1c0079b24c54a247/iOS/Card/01.png",
		"https://bytebucket.org/Frank-Zhu/ecloudprojects/raw/44b48811a589ae96f94adbce1c0079b24c54a247/iOS/Card/02.png",
		"https://bytebucket.org/Frank-Zhu/ecloudprojects/raw/44b48811a589ae96f94adbce1c0079b24c54a247/iOS/Card/03.png",
		"https://bytebucket.org/Frank-Zhu/ecloudprojects/raw/44b48811a589ae96f94adbce1c0079b24c54a247/iOS/Card/04.png",
		"https://bytebucket.org/Frank-Zhu/ecloudprojects/raw/44b48811a589ae96f94adbce1c0079b24c54a247/iOS/Card/05.jpg",
		"https://bytebucket.org/Frank-Zhu/ecloudprojects/raw/44b48811a589ae96f94adbce1c0079b24c54a247/iOS/Card/06.jpg"
	]
}